Report 3/Lab 8/data/Q1/545.940Hz/F0000CH1.CSV

Record Length,2.500000e+03,,  -0.022500000000,  13.50000,
Sample Interval,1.000000e-05,,  -0.022490000000,  13.50000,
Trigger Point,2.250000000000e+03,,  -0.022480000000,  13.52000,
,,,  -0.022470000000,  13.56000,
,,,  -0.022460000000,  13.54000,
,,,  -0.022450000000,  13.54000,
Source,CH1,,  -0.022440000000,  13.58000,
Vertical Units,V,,  -0.022430000000,  13.58000,
Vertical Scale,5.000000e-01,,  -0.022420000000,  13.60000,
Vertical Offset,-1.376000e+01,,  -0.022410000000,  13.62000,
Horizontal Units,s,,  -0.022400000000,  13.62000,
Horizontal Scale,2.500000e-03,,  -0.022390000000,  13.62000,
Pt Fmt,Y,,  -0.022380000000,  13.62000,
Yzero,0.000000e+00,,  -0.022370000000,  13.64000,
Probe Atten,1.000000e+00,,  -0.022360000000,  13.64000,
Model Number,TBS1102B,,  -0.022350000000,  13.64000,
Serial Number,C013601,,  -0.022340000000,  13.68000,
Firmware Version,FV:v4.0,,  -0.022330000000,  13.68000,
,,,-00.022320000000,  13.68000,
,,,-00.022310000000,  13.70000,
,,,-00.022300000000,  13.72000,
,,,-00.022290000000,  13.72000,
,,,-00.022280000000,  13.74000,
,,,-00.022270000000,  13.76000,
,,,-00.022260000000,  13.76000,
,,,-00.022250000000,  13.78000,
,,,-00.022240000000,  13.76000,
,,,-00.022230000000,  13.78000,
,,,-00.022220000000,  13.80000,
,,,-00.022210000000,  13.80000,
,,,-00.022200000000,  13.82000,
,,,-00.022190000000,  13.82000,
,,,-00.022180000000,  13.84000,
,,,-00.022170000000,  13.82000,
,,,-00.022160000000,  13.82000,
,,,-00.022150000000,  13.86000,
,,,-00.022140000000,  13.90000,
,,,-00.022130000000,  13.88000,
,,,-00.022120000000,  13.90000,
,,,-00.022110000000,  13.92000,
,,,-00.022100000000,  13.92000,
,,,-00.022090000000,  13.92000,
,,,-00.022080000000,  13.92000,
,,,-00.022070000000,  13.94000,
,,,-00.022060000000,  13.96000,
,,,-00.022050000000,  13.96000,
,,,-00.022040000000,  13.98000,
,,,-00.022030000000,  13.98000,
,,,-00.022020000000,  14.00000,
,,,-00.022010000000,  14.00000,
,,,-00.022000000000,  14.02000,
,,,-00.021990000000,  14.04000,
,,,-00.021980000000,  14.06000,
,,,-00.021970000000,  14.06000,
,,,-00.021960000000,  14.06000,
,,,-00.021950000000,  14.08000,
,,,-00.021940000000,  14.08000,
,,,-00.021930000000,  14.08000,
,,,-00.021920000000,  14.10000,
,,,-00.021910000000,  14.12000,
,,,-00.021900000000,  14.12000,
,,,-00.021890000000,  14.14000,
,,,-00.021880000000,  14.12000,
,,,-00.021870000000,  14.16000,
,,,-00.021860000000,  14.14000,
,,,-00.021850000000,  14.16000,
,,,-00.021840000000,  14.16000,
,,,-00.021830000000,  14.18000,
,,,-00.021820000000,  14.18000,
,,,-00.021810000000,  14.20000,
,,,-00.021800000000,  14.20000,
,,,-00.021790000000,  14.18000,
,,,-00.021780000000,  14.18000,
,,,-00.021770000000,  14.20000,
,,,-00.021760000000,  14.20000,
,,,-00.021750000000,  14.24000,
,,,-00.021740000000,  14.22000,
,,,-00.021730000000,  14.24000,
,,,-00.021720000000,  14.22000,
,,,-00.021710000000,  14.20000,
,,,-00.021700000000,  14.18000,
,,,-00.021690000000,  14.18000,
,,,-00.021680000000,  14.16000,
,,,-00.021670000000,  14.18000,
,,,-00.021660000000,  14.16000,
,,,-00.021650000000,  14.14000,
,,,-00.021640000000,  14.12000,
,,,-00.021630000000,  14.12000,
,,,-00.021620000000,  14.10000,
,,,-00.021610000000,  14.08000,
,,,-00.021600000000,  14.08000,
,,,-00.021590000000,  14.06000,
,,,-00.021580000000,  14.06000,
,,,-00.021570000000,  14.06000,
,,,-00.021560000000,  14.04000,
,,,-00.021550000000,  14.04000,
,,,-00.021540000000,  14.04000,
,,,-00.021530000000,  14.04000,
,,,-00.021520000000,  14.02000,
,,,-00.021510000000,  14.00000,
,,,-00.021500000000,  14.00000,
,,,-00.021490000000,  13.96000,
,,,-00.021480000000,  13.98000,
,,,-00.021470000000,  13.94000,
,,,-00.021460000000,  13.96000,
,,,-00.021450000000,  13.96000,
,,,-00.021440000000,  13.92000,
,,,-00.021430000000,  13.90000,
,,,-00.021420000000,  13.90000,
,,,-00.021410000000,  13.90000,
,,,-00.021400000000,  13.88000,
,,,-00.021390000000,  13.88000,
,,,-00.021380000000,  13.86000,
,,,-00.021370000000,  13.84000,
,,,-00.021360000000,  13.84000,
,,,-00.021350000000,  13.84000,
,,,-00.021340000000,  13.82000,
,,,-00.021330000000,  13.82000,
,,,-00.021320000000,  13.80000,
,,,-00.021310000000,  13.80000,
,,,-00.021300000000,  13.78000,
,,,-00.021290000000,  13.76000,
,,,-00.021280000000,  13.78000,
,,,-00.021270000000,  13.76000,
,,,-00.021260000000,  13.74000,
,,,-00.021250000000,  13.72000,
,,,-00.021240000000,  13.74000,
,,,-00.021230000000,  13.74000,
,,,-00.021220000000,  13.70000,
,,,-00.021210000000,  13.70000,
,,,-00.021200000000,  13.70000,
,,,-00.021190000000,  13.66000,
,,,-00.021180000000,  13.66000,
,,,-00.021170000000,  13.66000,
,,,-00.021160000000,  13.66000,
,,,-00.021150000000,  13.64000,
,,,-00.021140000000,  13.64000,
,,,-00.021130000000,  13.62000,
,,,-00.021120000000,  13.60000,
,,,-00.021110000000,  13.60000,
,,,-00.021100000000,  13.58000,
,,,-00.021090000000,  13.54000,
,,,-00.021080000000,  13.56000,
,,,-00.021070000000,  13.56000,
,,,-00.021060000000,  13.54000,
,,,-00.021050000000,  13.54000,
,,,-00.021040000000,  13.54000,
,,,-00.021030000000,  13.52000,
,,,-00.021020000000,  13.48000,
,,,-00.021010000000,  13.50000,
,,,-00.021000000000,  13.48000,
,,,-00.020990000000,  13.50000,
,,,-00.020980000000,  13.44000,
,,,-00.020970000000,  13.44000,
,,,-00.020960000000,  13.44000,
,,,-00.020950000000,  13.44000,
,,,-00.020940000000,  13.42000,
,,,-00.020930000000,  13.44000,
,,,-00.020920000000,  13.40000,
,,,-00.020910000000,  13.38000,
,,,-00.020900000000,  13.38000,
,,,-00.020890000000,  13.36000,
,,,-00.020880000000,  13.34000,
,,,-00.020870000000,  13.36000,
,,,-00.020860000000,  13.36000,
,,,-00.020850000000,  13.34000,
,,,-00.020840000000,  13.34000,
,,,-00.020830000000,  13.36000,
,,,-00.020820000000,  13.36000,
,,,-00.020810000000,  13.38000,
,,,-00.020800000000,  13.38000,
,,,-00.020790000000,  13.38000,
,,,-00.020780000000,  13.38000,
,,,-00.020770000000,  13.40000,
,,,-00.020760000000,  13.42000,
,,,-00.020750000000,  13.40000,
,,,-00.020740000000,  13.44000,
,,,-00.020730000000,  13.44000,
,,,-00.020720000000,  13.42000,
,,,-00.020710000000,  13.46000,
,,,-00.020700000000,  13.48000,
,,,-00.020690000000,  13.50000,
,,,-00.020680000000,  13.48000,
,,,-00.020670000000,  13.50000,
,,,-00.020660000000,  13.54000,
,,,-00.020650000000,  13.52000,
,,,-00.020640000000,  13.52000,
,,,-00.020630000000,  13.54000,
,,,-00.020620000000,  13.58000,
,,,-00.020610000000,  13.56000,
,,,-00.020600000000,  13.60000,
,,,-00.020590000000,  13.60000,
,,,-00.020580000000,  13.58000,
,,,-00.020570000000,  13.62000,
,,,-00.020560000000,  13.60000,
,,,-00.020550000000,  13.64000,
,,,-00.020540000000,  13.62000,
,,,-00.020530000000,  13.66000,
,,,-00.020520000000,  13.66000,
,,,-00.020510000000,  13.64000,
,,,-00.020500000000,  13.66000,
,,,-00.020490000000,  13.70000,
,,,-00.020480000000,  13.68000,
,,,-00.020470000000,  13.72000,
,,,-00.020460000000,  13.74000,
,,,-00.020450000000,  13.74000,
,,,-00.020440000000,  13.74000,
,,,-00.020430000000,  13.76000,
,,,-00.020420000000,  13.76000,
,,,-00.020410000000,  13.76000,
,,,-00.020400000000,  13.76000,
,,,-00.020390000000,  13.80000,
,,,-00.020380000000,  13.80000,
,,,-00.020370000000,  13.82000,
,,,-00.020360000000,  13.82000,
,,,-00.020350000000,  13.82000,
,,,-00.020340000000,  13.82000,
,,,-00.020330000000,  13.86000,
,,,-00.020320000000,  13.86000,
,,,-00.020310000000,  13.86000,
,,,-00.020300000000,  13.88000,
,,,-00.020290000000,  13.90000,
,,,-00.020280000000,  13.88000,
,,,-00.020270000000,  13.92000,
,,,-00.020260000000,  13.90000,
,,,-00.020250000000,  13.94000,
,,,-00.020240000000,  13.98000,
,,,-00.020230000000,  13.96000,
,,,-00.020220000000,  13.98000,
,,,-00.020210000000,  13.96000,
,,,-00.020200000000,  13.96000,
,,,-00.020190000000,  13.98000,
,,,-00.020180000000,  14.00000,
,,,-00.020170000000,  14.00000,
,,,-00.020160000000,  14.00000,
,,,-00.020150000000,  14.00000,
,,,-00.020140000000,  14.06000,
,,,-00.020130000000,  14.06000,
,,,-00.020120000000,  14.04000,
,,,-00.020110000000,  14.08000,
,,,-00.020100000000,  14.10000,
,,,-00.020090000000,  14.08000,
,,,-00.020080000000,  14.08000,
,,,-00.020070000000,  14.10000,
,,,-00.020060000000,  14.14000,
,,,-00.020050000000,  14.16000,
,,,-00.020040000000,  14.14000,
,,,-00.020030000000,  14.16000,
,,,-00.020020000000,  14.16000,
,,,-00.020010000000,  14.16000,
,,,-00.020000000000,  14.18000,
,,,-00.019990000000,  14.18000,
,,,-00.019980000000,  14.20000,
,,,-00.019970000000,  14.20000,
,,,-00.019960000000,  14.20000,
,,,-00.019950000000,  14.18000,
,,,-00.019940000000,  14.20000,
,,,-00.019930000000,  14.20000,
,,,-00.019920000000,  14.24000,
,,,-00.019910000000,  14.26000,
,,,-00.019900000000,  14.24000,
,,,-00.019890000000,  14.24000,
,,,-00.019880000000,  14.20000,
,,,-00.019870000000,  14.18000,
,,,-00.019860000000,  14.18000,
,,,-00.019850000000,  14.18000,
,,,-00.019840000000,  14.16000,
,,,-00.019830000000,  14.16000,
,,,-00.019820000000,  14.14000,
,,,-00.019810000000,  14.16000,
,,,-00.019800000000,  14.12000,
,,,-00.019790000000,  14.12000,
,,,-00.019780000000,  14.10000,
,,,-00.019770000000,  14.08000,
,,,-00.019760000000,  14.08000,
,,,-00.019750000000,  14.06000,
,,,-00.019740000000,  14.08000,
,,,-00.019730000000,  14.04000,
,,,-00.019720000000,  14.02000,
,,,-00.019710000000,  14.04000,
,,,-00.019700000000,  14.04000,
,,,-00.019690000000,  14.00000,
,,,-00.019680000000,  14.00000,
,,,-00.019670000000,  13.98000,
,,,-00.019660000000,  13.96000,
,,,-00.019650000000,  13.94000,
,,,-00.019640000000,  13.96000,
,,,-00.019630000000,  13.94000,
,,,-00.019620000000,  13.96000,
,,,-00.019610000000,  13.92000,
,,,-00.019600000000,  13.92000,
,,,-00.019590000000,  13.92000,
,,,-00.019580000000,  13.92000,
,,,-00.019570000000,  13.90000,
,,,-00.019560000000,  13.88000,
,,,-00.019550000000,  13.88000,
,,,-00.019540000000,  13.86000,
,,,-00.019530000000,  13.84000,
,,,-00.019520000000,  13.82000,
,,,-00.019510000000,  13.82000,
,,,-00.019500000000,  13.80000,
,,,-00.019490000000,  13.80000,
,,,-00.019480000000,  13.80000,
,,,-00.019470000000,  13.78000,
,,,-00.019460000000,  13.76000,
,,,-00.019450000000,  13.74000,
,,,-00.019440000000,  13.74000,
,,,-00.019430000000,  13.74000,
,,,-00.019420000000,  13.74000,
,,,-00.019410000000,  13.72000,
,,,-00.019400000000,  13.72000,
,,,-00.019390000000,  13.72000,
,,,-00.019380000000,  13.70000,
,,,-00.019370000000,  13.68000,
,,,-00.019360000000,  13.68000,
,,,-00.019350000000,  13.66000,
,,,-00.019340000000,  13.64000,
,,,-00.019330000000,  13.66000,
,,,-00.019320000000,  13.62000,
,,,-00.019310000000,  13.64000,
,,,-00.019300000000,  13.62000,
,,,-00.019290000000,  13.60000,
,,,-00.019280000000,  13.60000,
,,,-00.019270000000,  13.62000,
,,,-00.019260000000,  13.58000,
,,,-00.019250000000,  13.56000,
,,,-00.019240000000,  13.54000,
,,,-00.019230000000,  13.52000,
,,,-00.019220000000,  13.54000,
,,,-00.019210000000,  13.52000,
,,,-00.019200000000,  13.52000,
,,,-00.019190000000,  13.50000,
,,,-00.019180000000,  13.48000,
,,,-00.019170000000,  13.48000,
,,,-00.019160000000,  13.46000,
,,,-00.019150000000,  13.46000,
,,,-00.019140000000,  13.46000,
,,,-00.019130000000,  13.46000,
,,,-00.019120000000,  13.44000,
,,,-00.019110000000,  13.42000,
,,,-00.019100000000,  13.40000,
,,,-00.019090000000,  13.40000,
,,,-00.019080000000,  13.40000,
,,,-00.019070000000,  13.38000,
,,,-00.019060000000,  13.36000,
,,,-00.019050000000,  13.38000,
,,,-00.019040000000,  13.34000,
,,,-00.019030000000,  13.34000,
,,,-00.019020000000,  13.30000,
,,,-00.019010000000,  13.34000,
,,,-00.019000000000,  13.36000,
,,,-00.018990000000,  13.34000,
,,,-00.018980000000,  13.34000,
,,,-00.018970000000,  13.38000,
,,,-00.018960000000,  13.36000,
,,,-00.018950000000,  13.38000,
,,,-00.018940000000,  13.42000,
,,,-00.018930000000,  13.42000,
,,,-00.018920000000,  13.44000,
,,,-00.018910000000,  13.44000,
,,,-00.018900000000,  13.44000,
,,,-00.018890000000,  13.46000,
,,,-00.018880000000,  13.46000,
,,,-00.018870000000,  13.48000,
,,,-00.018860000000,  13.48000,
,,,-00.018850000000,  13.50000,
,,,-00.018840000000,  13.52000,
,,,-00.018830000000,  13.50000,
,,,-00.018820000000,  13.52000,
,,,-00.018810000000,  13.54000,
,,,-00.018800000000,  13.54000,
,,,-00.018790000000,  13.54000,
,,,-00.018780000000,  13.58000,
,,,-00.018770000000,  13.56000,
,,,-00.018760000000,  13.58000,
,,,-00.018750000000,  13.60000,
,,,-00.018740000000,  13.58000,
,,,-00.018730000000,  13.62000,
,,,-00.018720000000,  13.64000,
,,,-00.018710000000,  13.64000,
,,,-00.018700000000,  13.64000,
,,,-00.018690000000,  13.64000,
,,,-00.018680000000,  13.64000,
,,,-00.018670000000,  13.68000,
,,,-00.018660000000,  13.68000,
,,,-00.018650000000,  13.70000,
,,,-00.018640000000,  13.68000,
,,,-00.018630000000,  13.70000,
,,,-00.018620000000,  13.72000,
,,,-00.018610000000,  13.72000,
,,,-00.018600000000,  13.76000,
,,,-00.018590000000,  13.74000,
,,,-00.018580000000,  13.76000,
,,,-00.018570000000,  13.78000,
,,,-00.018560000000,  13.80000,
,,,-00.018550000000,  13.78000,
,,,-00.018540000000,  13.78000,
,,,-00.018530000000,  13.82000,
,,,-00.018520000000,  13.82000,
,,,-00.018510000000,  13.82000,
,,,-00.018500000000,  13.84000,
,,,-00.018490000000,  13.88000,
,,,-00.018480000000,  13.88000,
,,,-00.018470000000,  13.88000,
,,,-00.018460000000,  13.90000,
,,,-00.018450000000,  13.90000,
,,,-00.018440000000,  13.92000,
,,,-00.018430000000,  13.92000,
,,,-00.018420000000,  13.94000,
,,,-00.018410000000,  13.94000,
,,,-00.018400000000,  13.94000,
,,,-00.018390000000,  13.94000,
,,,-00.018380000000,  13.98000,
,,,-00.018370000000,  13.98000,
,,,-00.018360000000,  13.98000,
,,,-00.018350000000,  14.02000,
,,,-00.018340000000,  14.00000,
,,,-00.018330000000,  14.04000,
,,,-00.018320000000,  14.04000,
,,,-00.018310000000,  14.04000,
,,,-00.018300000000,  14.06000,
,,,-00.018290000000,  14.08000,
,,,-00.018280000000,  14.04000,
,,,-00.018270000000,  14.06000,
,,,-00.018260000000,  14.08000,
,,,-00.018250000000,  14.08000,
,,,-00.018240000000,  14.10000,
,,,-00.018230000000,  14.12000,
,,,-00.018220000000,  14.12000,
,,,-00.018210000000,  14.16000,
,,,-00.018200000000,  14.16000,
,,,-00.018190000000,  14.18000,
,,,-00.018180000000,  14.20000,
,,,-00.018170000000,  14.18000,
,,,-00.018160000000,  14.20000,
,,,-00.018150000000,  14.20000,
,,,-00.018140000000,  14.22000,
,,,-00.018130000000,  14.18000,
,,,-00.018120000000,  14.20000,
,,,-00.018110000000,  14.20000,
,,,-00.018100000000,  14.22000,
,,,-00.018090000000,  14.22000,
,,,-00.018080000000,  14.24000,
,,,-00.018070000000,  14.22000,
,,,-00.018060000000,  14.24000,
,,,-00.018050000000,  14.20000,
,,,-00.018040000000,  14.18000,
,,,-00.018030000000,  14.18000,
,,,-00.018020000000,  14.18000,
,,,-00.018010000000,  14.18000,
,,,-00.018000000000,  14.14000,
,,,-00.017990000000,  14.16000,
,,,-00.017980000000,  14.12000,
,,,-00.017970000000,  14.14000,
,,,-00.017960000000,  14.12000,
,,,-00.017950000000,  14.10000,
,,,-00.017940000000,  14.10000,
,,,-00.017930000000,  14.10000,
,,,-00.017920000000,  14.08000,
,,,-00.017910000000,  14.06000,
,,,-00.017900000000,  14.04000,
,,,-00.017890000000,  14.04000,
,,,-00.017880000000,  14.02000,
,,,-00.017870000000,  14.02000,
,,,-00.017860000000,  14.00000,
,,,-00.017850000000,  14.02000,
,,,-00.017840000000,  14.00000,
,,,-00.017830000000,  13.98000,
,,,-00.017820000000,  13.96000,
,,,-00.017810000000,  13.96000,
,,,-00.017800000000,  13.96000,
,,,-00.017790000000,  13.96000,
,,,-00.017780000000,  13.94000,
,,,-00.017770000000,  13.92000,
,,,-00.017760000000,  13.92000,
,,,-00.017750000000,  13.88000,
,,,-00.017740000000,  13.90000,
,,,-00.017730000000,  13.88000,
,,,-00.017720000000,  13.88000,
,,,-00.017710000000,  13.86000,
,,,-00.017700000000,  13.86000,
,,,-00.017690000000,  13.80000,
,,,-00.017680000000,  13.82000,
,,,-00.017670000000,  13.80000,
,,,-00.017660000000,  13.82000,
,,,-00.017650000000,  13.76000,
,,,-00.017640000000,  13.80000,
,,,-00.017630000000,  13.76000,
,,,-00.017620000000,  13.78000,
,,,-00.017610000000,  13.76000,
,,,-00.017600000000,  13.76000,
,,,-00.017590000000,  13.72000,
,,,-00.017580000000,  13.72000,
,,,-00.017570000000,  13.70000,
,,,-00.017560000000,  13.72000,
,,,-00.017550000000,  13.70000,
,,,-00.017540000000,  13.70000,
,,,-00.017530000000,  13.66000,
,,,-00.017520000000,  13.66000,
,,,-00.017510000000,  13.64000,
,,,-00.017500000000,  13.66000,
,,,-00.017490000000,  13.64000,
,,,-00.017480000000,  13.62000,
,,,-00.017470000000,  13.60000,
,,,-00.017460000000,  13.60000,
,,,-00.017450000000,  13.58000,
,,,-00.017440000000,  13.60000,
,,,-00.017430000000,  13.58000,
,,,-00.017420000000,  13.58000,
,,,-00.017410000000,  13.54000,
,,,-00.017400000000,  13.52000,
,,,-00.017390000000,  13.52000,
,,,-00.017380000000,  13.54000,
,,,-00.017370000000,  13.52000,
,,,-00.017360000000,  13.50000,
,,,-00.017350000000,  13.50000,
,,,-00.017340000000,  13.50000,
,,,-00.017330000000,  13.48000,
,,,-00.017320000000,  13.46000,
,,,-00.017310000000,  13.44000,
,,,-00.017300000000,  13.42000,
,,,-00.017290000000,  13.42000,
,,,-00.017280000000,  13.40000,
,,,-00.017270000000,  13.42000,
,,,-00.017260000000,  13.40000,
,,,-00.017250000000,  13.40000,
,,,-00.017240000000,  13.40000,
,,,-00.017230000000,  13.38000,
,,,-00.017220000000,  13.38000,
,,,-00.017210000000,  13.34000,
,,,-00.017200000000,  13.36000,
,,,-00.017190000000,  13.36000,
,,,-00.017180000000,  13.34000,
,,,-00.017170000000,  13.34000,
,,,-00.017160000000,  13.34000,
,,,-00.017150000000,  13.34000,
,,,-00.017140000000,  13.36000,
,,,-00.017130000000,  13.36000,
,,,-00.017120000000,  13.36000,
,,,-00.017110000000,  13.38000,
,,,-00.017100000000,  13.42000,
,,,-00.017090000000,  13.42000,
,,,-00.017080000000,  13.42000,
,,,-00.017070000000,  13.44000,
,,,-00.017060000000,  13.44000,
,,,-00.017050000000,  13.46000,
,,,-00.017040000000,  13.48000,
,,,-00.017030000000,  13.48000,
,,,-00.017020000000,  13.50000,
,,,-00.017010000000,  13.50000,
,,,-00.017000000000,  13.52000,
,,,-00.016990000000,  13.52000,
,,,-00.016980000000,  13.52000,
,,,-00.016970000000,  13.54000,
,,,-00.016960000000,  13.56000,
,,,-00.016950000000,  13.56000,
,,,-00.016940000000,  13.56000,
,,,-00.016930000000,  13.56000,
,,,-00.016920000000,  13.60000,
,,,-00.016910000000,  13.62000,
,,,-00.016900000000,  13.60000,
,,,-00.016890000000,  13.62000,
,,,-00.016880000000,  13.60000,
,,,-00.016870000000,  13.64000,
,,,-00.016860000000,  13.64000,
,,,-00.016850000000,  13.66000,
,,,-00.016840000000,  13.66000,
,,,-00.016830000000,  13.66000,
,,,-00.016820000000,  13.68000,
,,,-00.016810000000,  13.70000,
,,,-00.016800000000,  13.72000,
,,,-00.016790000000,  13.70000,
,,,-00.016780000000,  13.70000,
,,,-00.016770000000,  13.74000,
,,,-00.016760000000,  13.74000,
,,,-00.016750000000,  13.76000,
,,,-00.016740000000,  13.78000,
,,,-00.016730000000,  13.78000,
,,,-00.016720000000,  13.80000,
,,,-00.016710000000,  13.80000,
,,,-00.016700000000,  13.80000,
,,,-00.016690000000,  13.82000,
,,,-00.016680000000,  13.82000,
,,,-00.016670000000,  13.82000,
,,,-00.016660000000,  13.88000,
,,,-00.016650000000,  13.84000,
,,,-00.016640000000,  13.86000,
,,,-00.016630000000,  13.92000,
,,,-00.016620000000,  13.92000,
,,,-00.016610000000,  13.90000,
,,,-00.016600000000,  13.92000,
,,,-00.016590000000,  13.94000,
,,,-00.016580000000,  13.94000,
,,,-00.016570000000,  13.94000,
,,,-00.016560000000,  13.96000,
,,,-00.016550000000,  13.96000,
,,,-00.016540000000,  13.98000,
,,,-00.016530000000,  13.98000,
,,,-00.016520000000,  14.00000,
,,,-00.016510000000,  14.00000,
,,,-00.016500000000,  14.00000,
,,,-00.016490000000,  14.00000,
,,,-00.016480000000,  14.06000,
,,,-00.016470000000,  14.06000,
,,,-00.016460000000,  14.04000,
,,,-00.016450000000,  14.06000,
,,,-00.016440000000,  14.08000,
,,,-00.016430000000,  14.10000,
,,,-00.016420000000,  14.12000,
,,,-00.016410000000,  14.12000,
,,,-00.016400000000,  14.12000,
,,,-00.016390000000,  14.12000,
,,,-00.016380000000,  14.14000,
,,,-00.016370000000,  14.16000,
